Nicole Luisi: Data Analysis Portfolio - Module 8: Model Fitting
…
# A tibble: 2 × 5
  term         estimate std.error statistic p.value
  <chr>           <dbl>     <dbl>     <dbl>   <dbl>
1 (Intercept)    99.1      0.0819   1210.   0      
2 RunnyNoseYes   -0.293    0.0971     -3.01 0.00268

Fit another linear model to the continuous outcome using all (important) predictors of interest.

lm_mod <- linear_reg()
lm_full <-  lm_mod %>%  set_engine("lm") %>% 
  fit(BodyTemp ~ . ,data = mod8)
tidy(lm_full)

# A tibble: 38 × 5
   term                 estimate std.error statistic   p.value
   <chr>                   <dbl>     <dbl>     <dbl>     <dbl>
 1 (Intercept)           97.9       0.304   322.     0        
 2 SwollenLymphNodesYes  -0.165     0.0920   -1.80   0.0727   
 3 ChestCongestionYes     0.0873    0.0975    0.895  0.371    
 4 ChillsSweatsYes        0.201     0.127     1.58   0.114    
 5 NasalCongestionYes    -0.216     0.114    -1.90   0.0584   
 6 CoughYNYes             0.314     0.241     1.30   0.193    
 7 SneezeYes             -0.362     0.0983   -3.68   0.000249 
 8 FatigueYes             0.265     0.161     1.65   0.0996   
 9 SubjectiveFeverYes     0.437     0.103     4.22   0.0000271
10 HeadacheYes            0.0115    0.125     0.0913 0.927    
# … with 28 more rows
…
# A tibble: 2 × 5
  term         estimate std.error statistic    p.value
  <chr>           <dbl>     <dbl>     <dbl>      <dbl>
1 (Intercept)   -0.658      0.145    -4.53  0.00000589
2 RunnyNoseYes   0.0502     0.172     0.292 0.770     

Fit another logistic model to the categorical outcome using all (important) predictors of interest.

lrg_full <- logistic_reg() %>% 
  set_engine("glm") %>% 
  fit(Nausea ~ ., data = mod8)
tidy(lrg_full)

# A tibble: 38 × 5
   term                 estimate std.error statistic p.value
   <chr>                   <dbl>     <dbl>     <dbl>   <dbl>
 1 (Intercept)             0.223     7.83     0.0285  0.977 
 2 SwollenLymphNodesYes   -0.251     0.196   -1.28    0.200 
 3 ChestCongestionYes      0.276     0.213    1.30    0.195 
 4 ChillsSweatsYes         0.274     0.288    0.952   0.341 
 5 NasalCongestionYes      0.426     0.255    1.67    0.0944
 6 CoughYNYes             -0.140     0.519   -0.271   0.787 
 7 SneezeYes               0.177     0.210    0.840   0.401 
 8 FatigueYes              0.229     0.372    0.616   0.538 
 9 SubjectiveFeverYes      0.278     0.225    1.23    0.218 
10 HeadacheYes             0.331     0.285    1.16    0.245 
# … with 28 more rows
…
