Nicole Luisi: Data Analysis Portfolio - R Coding Exercise
…
#Fit results in table
library(broom)
tidy(gdp_le_fit)

# A tibble: 2 × 5
  term        estimate std.error statistic  p.value
  <chr>          <dbl>     <dbl>     <dbl>    <dbl>
1 (Intercept) 5.50e+ 1  1.25e+ 0     44.1  4.21e-41
2 gdp         1.17e-10  4.64e-11      2.52 1.52e- 2

augment(gdp_le_fit)

# A tibble: 51 × 8
   life_expectancy          gdp .fitted .resid   .hat .sigma  .cooksd .std.resid
             <dbl>        <dbl>   <dbl>  <dbl>  <dbl>  <dbl>    <dbl>      <dbl>
 1            73.3 54790058957     61.4  11.9  0.0818   7.93 0.106         1.54 
 2            52.3  9129180361     56.1  -3.78 0.0198   8.11 0.00228      -0.475
 3            57.2  2254838685     55.3   1.92 0.0225   8.12 0.000673      0.242
 4            47.6  5632391130     55.7  -8.07 0.0208   8.04 0.0109       -1.01 
 5            52.6  2610945549     55.3  -2.72 0.0223   8.12 0.00133      -0.342
 6            46.7   835334807.    55.1  -8.41 0.0234   8.03 0.0134       -1.06 
 7            54.3 10075040331     56.2  -1.89 0.0197   8.12 0.000566     -0.237
 8            68.4   539227053.    55.1  13.3  0.0236   7.89 0.0340        1.68 
 9            45.3   959413051.    55.1  -9.83 0.0233   8.00 0.0183       -1.24 
10            51.5  1385050964     55.2  -3.68 0.0231   8.11 0.00252      -0.462
# … with 41 more rows
…
